<?xml version="1.0" encoding="UTF-8" standalone="no"?>
<svg
   xmlns:dc="http://purl.org/dc/elements/1.1/"
   xmlns:cc="http://creativecommons.org/ns#"
   xmlns:rdf="http://www.w3.org/1999/02/22-rdf-syntax-ns#"
   xmlns:svg="http://www.w3.org/2000/svg"
   xmlns="http://www.w3.org/2000/svg"
   xmlns:xlink="http://www.w3.org/1999/xlink"
   xmlns:sodipodi="http://sodipodi.sourceforge.net/DTD/sodipodi-0.dtd"
   xmlns:inkscape="http://www.inkscape.org/namespaces/inkscape"
   inkscape:export-ydpi="96"
   inkscape:export-xdpi="96"
   inkscape:version="1.0 (4035a4fb49, 2020-05-01)"
   sodipodi:docname="anonybulle-image.svg"
   xml:space="preserve"
   viewBox="0 0 1620.769 544.57587"
   y="0px"
   x="0px"
   id="Capa_1"
   version="1.1"
   width="1620.7689"
   height="544.57587"><metadata
   id="metadata79"><rdf:RDF><cc:Work
       rdf:about=""><dc:format>image/svg+xml</dc:format><dc:type
         rdf:resource="http://purl.org/dc/dcmitype/StillImage" /><dc:title></dc:title></cc:Work></rdf:RDF></metadata><defs
   id="defs77"><linearGradient
     gradientTransform="matrix(8,0,0,8,291.81774,-146.70386)"
     id="linear-gradient-15"
     x1="19.396999"
     x2="78.073997"
     xlink:href="#linear-gradient"
     y1="68.602997"
     y2="9.9259996" /><linearGradient
     id="linear-gradient"
     gradientUnits="userSpaceOnUse"
     x1="-0.60299999"
     x2="58.074001"
     y1="48.603001"
     y2="-10.074"><stop
       offset="0"
       stop-color="#003f8a"
       id="stop2" /><stop
       offset=".518"
       stop-color="#00d7df"
       id="stop4" /><stop
       offset="1"
       stop-color="#006df0"
       id="stop6" /></linearGradient><linearGradient
     gradientTransform="matrix(8,0,0,8,187.68848,25.66751)"
     id="linear-gradient-12"
     x1="3.3970001"
     x2="62.074001"
     xlink:href="#linear-gradient"
     y1="52.603001"
     y2="-6.0739999" /><linearGradient
     gradientTransform="matrix(8,0,0,8,-44.363662,163.94233)"
     id="linear-gradient-13"
     x1="10.897"
     x2="69.573997"
     xlink:href="#linear-gradient"
     y1="60.103001"
     y2="1.426" /><linearGradient
     id="linearGradient914"
     x1="3.3970001"
     x2="62.074001"
     xlink:href="#linear-gradient"
     y1="52.603001"
     y2="-6.0739999" /><linearGradient
     gradientTransform="matrix(8,0,0,8,59.665328,235.21011)"
     id="linear-gradient-11"
     x1="-7.1030002"
     x2="51.574001"
     xlink:href="#linear-gradient"
     y1="42.103001"
     y2="-16.573999" /><linearGradient
     gradientTransform="matrix(8,0,0,8,-397.71912,51.811561)"
     id="linear-gradient-10"
     x1="10.483"
     x2="69.161003"
     xlink:href="#linear-gradient"
     y1="59.689999"
     y2="1.012" /><linearGradient
     gradientTransform="matrix(8,0,0,8,-397.71912,51.811561)"
     id="linear-gradient-9"
     x1="12.897"
     x2="71.573997"
     xlink:href="#linear-gradient"
     y1="62.103001"
     y2="3.4260001" /><linearGradient
     gradientTransform="matrix(8,0,0,8,-397.71912,51.811561)"
     id="linear-gradient-8"
     x1="9.5869999"
     x2="68.264"
     xlink:href="#linear-gradient"
     y1="58.792999"
     y2="0.116" /><linearGradient
     gradientTransform="matrix(8,0,0,8,-397.71912,51.811561)"
     id="linear-gradient-7"
     x1="11.397"
     x2="70.073997"
     xlink:href="#linear-gradient"
     y1="60.603001"
     y2="1.926" /><linearGradient
     gradientTransform="matrix(8,0,0,8,-397.71912,51.811561)"
     id="linear-gradient-6"
     x1="-3.9130001"
     x2="54.764"
     xlink:href="#linear-gradient"
     y1="45.292999"
     y2="-13.384" /><linearGradient
     gradientTransform="matrix(8,0,0,8,-397.71912,51.811561)"
     id="linear-gradient-5"
     x1="-2.1029999"
     x2="56.574001"
     xlink:href="#linear-gradient"
     y1="47.103001"
     y2="-11.574" /><linearGradient
     gradientTransform="matrix(8,0,0,8,-397.71912,51.811561)"
     id="linear-gradient-4"
     x1="17.07"
     x2="75.747002"
     xlink:href="#linear-gradient"
     y1="66.277"
     y2="7.599" /><linearGradient
     gradientTransform="matrix(8,0,0,8,-397.71912,51.811561)"
     id="linear-gradient-3"
     x1="21.896999"
     x2="80.573997"
     xlink:href="#linear-gradient"
     y1="71.102997"
     y2="12.426" /><linearGradient
     gradientTransform="matrix(8,0,0,8,-397.71912,51.811561)"
     id="linear-gradient-2"
     x1="-5.4299998"
     x2="53.247002"
     xlink:href="#linear-gradient"
     y1="43.777"
     y2="-14.901" /><linearGradient
     gradientTransform="matrix(8,0,0,8,-397.71912,51.811561)"
     y2="-10.074"
     x2="58.074001"
     y1="48.603001"
     x1="-0.60299999"
     gradientUnits="userSpaceOnUse"
     id="linearGradient1037"
     xlink:href="#linear-gradient"
     inkscape:collect="always" /><linearGradient
     y2="-6.0739999"
     x2="62.074001"
     y1="52.603001"
     x1="3.3970001"
     gradientTransform="matrix(8,0,0,8,1222.6784,-101.49503)"
     id="linearGradient1202"
     xlink:href="#linear-gradient"
     inkscape:collect="always" /><linearGradient
     y2="-14.901"
     y1="43.777"
     xlink:href="#linear-gradient"
     x2="53.247002"
     x1="-5.4299998"
     id="linear-gradient-2-5"
     gradientTransform="translate(52.605658,14.032188)" /><linearGradient
     y2="12.426"
     y1="71.102997"
     xlink:href="#linear-gradient"
     x2="80.573997"
     x1="21.896999"
     id="linear-gradient-3-3"
     gradientTransform="matrix(7.9999999,0,0,7.9999999,575.13228,0.57585)" /><linearGradient
     y2="7.599"
     y1="66.277"
     xlink:href="#linear-gradient"
     x2="75.747002"
     x1="17.07"
     id="linear-gradient-4-5"
     gradientTransform="matrix(7.9999999,0,0,7.9999999,575.13228,0.57585)" /><linearGradient
     y2="-11.574"
     y1="47.103001"
     xlink:href="#linear-gradient"
     x2="56.574001"
     x1="-2.1029999"
     id="linear-gradient-5-6"
     gradientTransform="translate(52.605658,14.032188)" /><linearGradient
     y2="-13.384"
     y1="45.292999"
     xlink:href="#linear-gradient"
     x2="54.764"
     x1="-3.9130001"
     id="linear-gradient-6-2"
     gradientTransform="translate(52.605658,14.032188)" /><linearGradient
     y2="1.926"
     y1="60.603001"
     xlink:href="#linear-gradient"
     x2="70.073997"
     x1="11.397"
     id="linear-gradient-7-9"
     gradientTransform="translate(52.605658,14.032188)" /><linearGradient
     y2="0.116"
     y1="58.792999"
     xlink:href="#linear-gradient"
     x2="68.264"
     x1="9.5869999"
     id="linear-gradient-8-1"
     gradientTransform="translate(52.605658,14.032188)" /><linearGradient
     y2="3.4260001"
     y1="62.103001"
     xlink:href="#linear-gradient"
     x2="71.573997"
     x1="12.897"
     id="linear-gradient-9-2"
     gradientTransform="matrix(7.9999999,0,0,7.9999999,575.13228,0.57585)" /><linearGradient
     y2="1.012"
     y1="59.689999"
     xlink:href="#linear-gradient"
     x2="69.161003"
     x1="10.483"
     id="linear-gradient-10-7"
     gradientTransform="matrix(7.9999999,0,0,7.9999999,575.13228,0.57585)" /><linearGradient
     y2="-16.573999"
     y1="42.103001"
     xlink:href="#linear-gradient"
     x2="51.574001"
     x1="-7.1030002"
     id="linear-gradient-11-0"
     gradientTransform="matrix(7.9999999,0,0,7.9999999,385.25982,-1.915045)" /><linearGradient
     y2="-6.0739999"
     y1="52.603001"
     xlink:href="#linear-gradient"
     x2="62.074001"
     x1="3.3970001"
     id="linear-gradient-12-9"
     gradientTransform="matrix(7.9999999,0,0,7.9999999,575.13228,0.57585)" /><linearGradient
     y2="1.426"
     y1="60.103001"
     xlink:href="#linear-gradient"
     x2="69.573997"
     x1="10.897"
     id="linear-gradient-13-3"
     gradientTransform="matrix(7.9999999,0,0,7.9999999,575.13228,0.57585)" /><linearGradient
     y2="9.9259996"
     y1="68.602997"
     xlink:href="#linear-gradient"
     x2="78.073997"
     x1="19.396999"
     id="linear-gradient-15-6"
     gradientTransform="matrix(7.9999999,0,0,7.9999999,575.13228,0.57585)" /><linearGradient
     inkscape:collect="always"
     xlink:href="#linear-gradient"
     id="linearGradient1195"
     gradientUnits="userSpaceOnUse"
     x1="-0.60299999"
     y1="48.603001"
     x2="58.074001"
     y2="-10.074"
     gradientTransform="translate(52.605658,14.032188)" /><linearGradient
     y2="-14.901"
     y1="43.777"
     xlink:href="#linear-gradient"
     x2="53.247002"
     x1="-5.4299998"
     id="linear-gradient-2-9"
     gradientTransform="translate(104.42635,-8.7144649)" /><linearGradient
     y2="12.426"
     y1="71.102997"
     xlink:href="#linear-gradient"
     x2="80.573997"
     x1="21.896999"
     id="linear-gradient-3-7"
     gradientTransform="translate(104.42635,-8.7144649)" /><linearGradient
     y2="7.599"
     y1="66.277"
     xlink:href="#linear-gradient"
     x2="75.747002"
     x1="17.07"
     id="linear-gradient-4-3"
     gradientTransform="translate(104.42635,-8.7144649)" /><linearGradient
     y2="-11.574"
     y1="47.103001"
     xlink:href="#linear-gradient"
     x2="56.574001"
     x1="-2.1029999"
     id="linear-gradient-5-61"
     gradientTransform="translate(104.17635,-13.964465)" /><linearGradient
     y2="-13.384"
     y1="45.292999"
     xlink:href="#linear-gradient"
     x2="54.764"
     x1="-3.9130001"
     id="linear-gradient-6-29"
     gradientTransform="translate(104.17635,-13.964465)" /><linearGradient
     y2="1.926"
     y1="60.603001"
     xlink:href="#linear-gradient"
     x2="70.073997"
     x1="11.397"
     id="linear-gradient-7-3"
     gradientTransform="translate(99.336977,2.0044086)" /><linearGradient
     y2="0.116"
     y1="58.792999"
     xlink:href="#linear-gradient"
     x2="68.264"
     x1="9.5869999"
     id="linear-gradient-8-19"
     gradientTransform="translate(99.489718,2.651348)" /><linearGradient
     y2="3.4260001"
     y1="62.103001"
     xlink:href="#linear-gradient"
     x2="71.573997"
     x1="12.897"
     id="linear-gradient-9-4"
     gradientTransform="translate(104.17635,-13.964465)" /><linearGradient
     y2="1.012"
     y1="59.689999"
     xlink:href="#linear-gradient"
     x2="69.161003"
     x1="10.483"
     id="linear-gradient-10-78"
     gradientTransform="translate(104.17635,-13.964465)" /><linearGradient
     y2="-16.573999"
     y1="42.103001"
     xlink:href="#linear-gradient"
     x2="51.574001"
     x1="-7.1030002"
     id="linear-gradient-11-4"
     gradientTransform="matrix(7.9999999,0,0,7.9999999,784.40336,-23.999996)" /><linearGradient
     y2="-6.0739999"
     y1="52.603001"
     xlink:href="#linear-gradient"
     x2="62.074001"
     x1="3.3970001"
     id="linear-gradient-12-5"
     gradientTransform="matrix(7.9999999,0,0,7.9999999,1167.7394,223.91142)" /><linearGradient
     y2="1.426"
     y1="60.103001"
     xlink:href="#linear-gradient"
     x2="69.573997"
     x1="10.897"
     id="linear-gradient-13-0"
     gradientTransform="matrix(7.9999999,0,0,7.9999999,1045.3714,-159.01669)" /><linearGradient
     y2="9.9259996"
     y1="68.602997"
     xlink:href="#linear-gradient"
     x2="78.073997"
     x1="19.396999"
     id="linear-gradient-15-3"
     gradientTransform="matrix(7.9999999,0,0,7.9999999,989.69781,-181.39737)" /><linearGradient
     inkscape:collect="always"
     xlink:href="#linear-gradient"
     id="linearGradient1195-6"
     gradientUnits="userSpaceOnUse"
     x1="-0.60299999"
     y1="48.603001"
     x2="58.074001"
     y2="-10.074"
     gradientTransform="translate(104.42635,-8.7144649)" /><linearGradient
     inkscape:collect="always"
     xlink:href="#linear-gradient"
     id="linearGradient1455"
     gradientTransform="matrix(7.9999999,0,0,7.9999999,983.00885,-139.49058)"
     x1="3.3970001"
     y1="52.603001"
     x2="62.074001"
     y2="-6.0739999" /><linearGradient
     inkscape:collect="always"
     xlink:href="#linear-gradient"
     id="linearGradient1465"
     gradientUnits="userSpaceOnUse"
     x1="-0.60299999"
     y1="48.603001"
     x2="58.074001"
     y2="-10.074"
     gradientTransform="matrix(7.9999999,0,0,7.9999999,42.996538,-64.562271)" /><linearGradient
     inkscape:collect="always"
     xlink:href="#linear-gradient"
     id="linearGradient1467"
     x1="3.3970001"
     y1="52.603001"
     x2="62.074001"
     y2="-6.0739999"
     gradientTransform="matrix(7.9999999,0,0,7.9999999,156.28702,-69.681651)" /><linearGradient
     inkscape:collect="always"
     xlink:href="#linear-gradient"
     id="linearGradient408"
     gradientTransform="matrix(7.9999999,0,0,7.9999999,575.13228,0.57585)"
     x1="3.3970001"
     y1="52.603001"
     x2="62.074001"
     y2="-6.0739999" /></defs><sodipodi:namedview
   inkscape:current-layer="Capa_1"
   inkscape:window-maximized="0"
   inkscape:window-y="96"
   inkscape:window-x="1952"
   inkscape:cy="156.4205"
   inkscape:cx="753.26837"
   inkscape:zoom="0.59800241"
   showgrid="false"
   id="namedview75"
   inkscape:window-height="952"
   inkscape:window-width="1856"
   inkscape:pageshadow="2"
   inkscape:pageopacity="0"
   guidetolerance="10"
   gridtolerance="10"
   objecttolerance="10"
   borderopacity="1"
   bordercolor="#666666"
   pagecolor="#ffffff"
   inkscape:document-rotation="0"
   fit-margin-top="40"
   lock-margins="true"
   fit-margin-left="40"
   fit-margin-right="40"
   fit-margin-bottom="40" />






























<path
   style="opacity:0.858126;fill:url(#linear-gradient-15);stroke-width:8"
   d="m 515.81773,309.29613 a 24,24 0 1 0 24,24 24,24 0 0 0 -24,-24 z m 0,32 a 8,8 0 1 1 8,-8 8,8 0 0 1 -8,8 z"
   fill="url(#linear-gradient-15)"
   id="path50" /><path
   style="opacity:0.858126;fill:url(#linearGradient1202);stroke-width:8"
   d="m 1310.6784,234.50497 a 24,24 0 1 0 24,24 24,24 0 0 0 -24,-24 z m 0,32 a 8,8 0 1 1 8,-8 8,8 0 0 1 -8,8 z"
   fill="url(#linear-gradient-12)"
   id="path48" /><path
   style="opacity:0.858126;fill:url(#linear-gradient-13);stroke-width:8"
   d="m 251.63634,459.94233 a 24,24 0 1 0 -24,-24 24,24 0 0 0 24,24 z m 0,-31.99999 a 8,8 0 1 1 -8,7.99999 8,8 0 0 1 8,-7.99999 z"
   fill="url(#linear-gradient-13)"
   id="path46" /><path
   style="opacity:0.858126;fill:url(#linear-gradient-12);stroke-width:8"
   d="m 499.68848,185.66751 a 24,24 0 1 0 -24.00001,24 24,24 0 0 0 24.00001,-24 z m -32.00001,0 a 8,8 0 1 1 8,8 8,8 0 0 1 -8,-8 z"
   fill="url(#linear-gradient-12)"
   id="path44" /><path
   style="opacity:0.858126;fill:url(#linear-gradient-11);stroke-width:8"
   d="m 251.66533,347.21011 a 24,24 0 1 0 -24,-24 24,24 0 0 0 24,24 z m 0,-32 a 8,8 0 1 1 -8,8 8,8 0 0 1 8,-8 z"
   fill="url(#linear-gradient-11)"
   id="path42-2" /><g
   style="opacity:0.858126"
   id="g1214"
   transform="translate(474.96901,90.19025)"><path
     id="path30-3"
     fill="url(#linear-gradient-5)"
     d="m -101.71912,171.81156 a 56,56 0 1 0 -56,-56 56.064,56.064 0 0 0 56,56 z m 0,-95.999999 a 40,40 0 1 1 -40,39.999999 40.048,40.048 0 0 1 40,-39.999999 z"
     style="fill:url(#linear-gradient-5);stroke-width:8" /><g
     id="g1209"><path
       style="fill:url(#linear-gradient-6);stroke-width:8"
       d="m -117.71912,115.81156 a 16,16 0 0 1 16,-15.999998 8.0000005,8.0000005 0 0 0 0,-16.000001 32,32 0 0 0 -32,31.999999 8,8 0 0 0 16,0 z"
       fill="url(#linear-gradient-6)"
       id="path32-5" /></g></g><g
   transform="translate(1302.842,132.34022)"
   style="opacity:0.858126"
   id="g1206"><path
     id="path38-9"
     fill="url(#linear-gradient-9)"
     d="m -77.719115,259.81156 a 72,72 0 1 0 71.9999999,-72 72.088,72.088 0 0 0 -71.9999999,72 z m 71.9999999,-56 a 56,56 0 1 1 -55.9999999,56 56.064,56.064 0 0 1 55.9999999,-56 z"
     style="fill:url(#linear-gradient-9);stroke-width:8" /><path
     id="path40-1"
     fill="url(#linear-gradient-10)"
     d="m -37.719115,267.81156 a 8,8 0 0 0 8,-8 24,24 0 0 1 23.9999999,-24 8,8 0 0 0 0,-16 40.048,40.048 0 0 0 -39.9999999,40 8,8 0 0 0 8,8 z"
     style="fill:url(#linear-gradient-10);stroke-width:8" /></g><g
   style="opacity:0.858126"
   id="g1218"
   transform="translate(643.53062,116.74526)"><path
     id="path22-3"
     fill="url(#linear-gradient)"
     d="m -245.71912,387.81156 a 104,104 0 1 0 -104,-104 104.12,104.12 0 0 0 104,104 z m 0,-192 a 88,88 0 1 1 -88,88 88.104,88.104 0 0 1 88,-88 z"
     style="fill:url(#linearGradient1037);stroke-width:8" /><path
     id="path24-6"
     fill="url(#linear-gradient-2)"
     d="m -301.71912,283.81156 a 56.064,56.064 0 0 1 56,-56 8,8 0 0 0 0,-16 72.088,72.088 0 0 0 -72,72 8,8 0 0 0 16,0 z"
     style="fill:url(#linear-gradient-2);stroke-width:8" /></g><path
   style="fill:url(#linearGradient1465);stroke-width:8"
   id="path22-6"
   fill="url(#linear-gradient)"
   d="m 194.99654,271.43772 a 104,104 0 1 0 -103.999998,-104 104.12,104.12 0 0 0 103.999998,104 z m 0,-192 a 87.999999,87.999999 0 1 1 -88,88 88.103999,88.103999 0 0 1 88,-88 z" /><path
   style="fill:url(#linear-gradient-2-3);stroke-width:8"
   id="path24-2"
   fill="url(#linear-gradient-2)"
   d="m 252.28702,162.31835 a 56.063999,56.063999 0 0 1 56,-56 8,8 0 0 0 0,-16 72.087999,72.087999 0 0 0 -72,72 8,8 0 0 0 16,0 z" /><path
   style="fill:url(#linear-gradient-3-5);stroke-width:8"
   id="path26-61"
   fill="url(#linear-gradient-3)"
   d="m 500.28702,226.31835 a 104,104 0 1 0 103.99999,104 104.12,104.12 0 0 0 -103.99999,-104 z m 0,191.99999 a 87.999999,87.999999 0 1 1 87.99999,-87.99999 88.103999,88.103999 0 0 1 -87.99999,87.99999 z" /><path
   style="fill:url(#linear-gradient-4-6);stroke-width:8"
   id="path28-8"
   fill="url(#linear-gradient-4)"
   d="m 500.28702,258.31835 a 72.087999,72.087999 0 0 0 -72,72 8,8 0 0 0 16,0 56.063999,56.063999 0 0 1 56,-56 8,8 0 0 0 0,-16 z" /><path
   style="fill:url(#linear-gradient-7-1);stroke-width:8"
   id="path34-2"
   fill="url(#linear-gradient-7)"
   d="m 380.28702,338.31834 a 55.999999,55.999999 0 1 0 -56,56 56.063999,56.063999 0 0 0 56,-56 z m -56,40 a 40,40 0 1 1 40,-40 40.047999,40.047999 0 0 1 -40,40 z" /><path
   style="fill:url(#linear-gradient-8-2);stroke-width:8"
   id="path36-0"
   fill="url(#linear-gradient-8)"
   d="m 324.28702,306.31835 a 32,32 0 0 0 -32,31.99999 8,8 0 0 0 16,0 16,16 0 0 1 16,-15.99999 8,8 0 0 0 0,-16 z" /><path
   style="fill:url(#linear-gradient-9-7);stroke-width:8"
   id="path38-23"
   fill="url(#linear-gradient-9)"
   d="m 476.28702,138.31835 a 71.999999,71.999999 0 1 0 72,-72 72.087999,72.087999 0 0 0 -72,72 z m 72,-56 a 55.999999,55.999999 0 1 1 -56,56 56.063999,56.063999 0 0 1 56,-56 z" /><path
   style="fill:url(#linear-gradient-10-0);stroke-width:8"
   id="path40-7"
   fill="url(#linear-gradient-10)"
   d="m 516.28702,146.31835 a 7.9999999,7.9999999 0 0 0 8,-8 24,24 0 0 1 24,-24 8,8 0 0 0 0,-16 40.047999,40.047999 0 0 0 -40,40 7.9999999,7.9999999 0 0 0 8,8 z" /><path
   style="fill:url(#linearGradient1467);stroke-width:8"
   id="path44-9"
   fill="url(#linear-gradient-12)"
   d="m 468.28702,90.31835 a 24,24 0 1 0 -24,24 24,24 0 0 0 24,-24 z m -32,0 a 7.9999999,7.9999999 0 1 1 8,8 7.9999999,7.9999999 0 0 1 -8,-8 z" /><path
   style="fill:url(#linear-gradient-13-6);stroke-width:8"
   id="path46-2"
   fill="url(#linear-gradient-13)"
   d="m 452.28702,226.31835 a 24,24 0 1 0 -24,-24 24,24 0 0 0 24,24 z m 0,-32 a 7.9999999,7.9999999 0 1 1 -8,8 7.9999999,7.9999999 0 0 1 8,-8 z" /><path
   style="fill:url(#linear-gradient-12-3);stroke-width:8"
   id="path48-2"
   fill="url(#linear-gradient-12)"
   d="m 244.28702,266.31835 a 24,24 0 1 0 24,24 24,24 0 0 0 -24,-24 z m 0,32 a 7.9999999,7.9999999 0 1 1 8,-8 7.9999999,7.9999999 0 0 1 -8,8 z" /><path
   style="fill:url(#linear-gradient-15-0);stroke-width:8"
   id="path50-8"
   fill="url(#linear-gradient-15)"
   d="m 380.28702,386.31834 a 24,24 0 1 0 24,24 24,24 0 0 0 -24,-24 z m 0,32 a 7.9999999,7.9999999 0 1 1 8,-8 7.9999999,7.9999999 0 0 1 -8,8 z" /><g
   id="g176"
   transform="matrix(7.9999999,0,0,7.9999999,59.163618,-113.59894)"><path
     id="path22-0"
     fill="url(#linear-gradient)"
     d="m 71.605658,56.032188 a 13,13 0 1 0 -13,-13 13.015,13.015 0 0 0 13,13 z m 0,-24 a 11,11 0 1 1 -11,11 11.013,11.013 0 0 1 11,-11 z"
     style="fill:url(#linearGradient1195);stroke-width:1" /><path
     id="path24-6-9"
     fill="url(#linear-gradient-2)"
     d="m 64.605658,43.032188 a 7.008,7.008 0 0 1 7,-7 1,1 0 0 0 0,-2 9.011,9.011 0 0 0 -9,9 1,1 0 0 0 2,0 z"
     style="fill:url(#linear-gradient-2-5);stroke-width:1" /></g><path
   style="fill:url(#linear-gradient-3-3);stroke-width:8"
   d="m 919.13227,296.57585 a 104,104 0 1 0 104.00003,104 104.12,104.12 0 0 0 -104.00003,-104 z m 0,192 a 87.999999,87.999999 0 1 1 88.00003,-88 88.103999,88.103999 0 0 1 -88.00003,88 z"
   fill="url(#linear-gradient-3)"
   id="path26-2" /><path
   style="fill:url(#linear-gradient-4-5);stroke-width:8"
   d="m 919.13227,328.57585 a 72.087999,72.087999 0 0 0 -71.99999,72 8,8 0 0 0 16,0 56.063999,56.063999 0 0 1 55.99999,-56 8,8 0 0 0 0,-16 z"
   fill="url(#linear-gradient-4)"
   id="path28-6" /><g
   id="g180"
   transform="matrix(7.9999999,0,0,7.9999999,52.042738,-76.064107)"><path
     id="path30-1"
     fill="url(#linear-gradient-5)"
     d="m 89.605658,29.032188 a 7,7 0 1 0 -7,-7 7.008,7.008 0 0 0 7,7 z m 0,-12 a 5,5 0 1 1 -5,5 5.006,5.006 0 0 1 5,-5 z"
     style="fill:url(#linear-gradient-5-6);stroke-width:1" /><path
     id="path32-8"
     fill="url(#linear-gradient-6)"
     d="m 87.605658,22.032188 a 2,2 0 0 1 2,-2 1,1 0 0 0 0,-2 4,4 0 0 0 -4,4 1,1 0 0 0 2,0 z"
     style="fill:url(#linear-gradient-6-2);stroke-width:1" /></g><g
   id="g172"
   transform="matrix(7.9999999,0,0,7.9999999,-1.3891412,-90.676456)"><path
     id="path34-7"
     fill="url(#linear-gradient-7)"
     d="m 80.605658,65.032188 a 7,7 0 1 0 -7,7 7.008,7.008 0 0 0 7,-7 z m -7,5 a 5,5 0 1 1 5,-5 5.006,5.006 0 0 1 -5,5 z"
     style="fill:url(#linear-gradient-7-9);stroke-width:1" /><path
     id="path36-9"
     fill="url(#linear-gradient-8)"
     d="m 73.605658,61.032188 a 4,4 0 0 0 -4,4 1,1 0 0 0 2,0 2,2 0 0 1 2,-2 1,1 0 0 0 0,-2 z"
     style="fill:url(#linear-gradient-8-1);stroke-width:1" /></g><path
   style="fill:url(#linear-gradient-9-2);stroke-width:8"
   d="m 895.13227,208.57585 a 71.999999,71.999999 0 1 0 72.00002,-72 72.087999,72.087999 0 0 0 -72.00002,72 z m 72.00002,-56 a 55.999999,55.999999 0 1 1 -56.00002,56 56.063999,56.063999 0 0 1 56.00002,-56 z"
   fill="url(#linear-gradient-9)"
   id="path38-2" /><path
   style="fill:url(#linear-gradient-10-7);stroke-width:8"
   d="m 935.13227,216.57585 a 7.9999999,7.9999999 0 0 0 8,-8 24,24 0 0 1 24.00002,-24 8,8 0 0 0 0,-16 40.047999,40.047999 0 0 0 -40.00002,40 7.9999999,7.9999999 0 0 0 8,8 z"
   fill="url(#linear-gradient-10)"
   id="path40-0" /><path
   style="fill:url(#linear-gradient-11-0);stroke-width:8"
   d="m 577.25981,110.08496 a 24,24 0 1 0 -23.99999,-24 24,24 0 0 0 23.99999,24 z m 0,-32 a 7.9999999,7.9999999 0 1 1 -8,8 7.9999999,7.9999999 0 0 1 8,-8 z"
   fill="url(#linear-gradient-11)"
   id="path42-2-7" /><path
   style="fill:url(#linearGradient408);stroke-width:8"
   d="m 887.13227,160.57585 a 24,24 0 1 0 -23.99999,24 24,24 0 0 0 23.99999,-24 z m -31.99999,0 a 7.9999999,7.9999999 0 1 1 8,8 7.9999999,7.9999999 0 0 1 -8,-8 z"
   fill="url(#linear-gradient-12)"
   id="path44-3" /><path
   style="fill:url(#linear-gradient-13-3);stroke-width:8"
   d="m 871.13228,296.57585 a 24,24 0 1 0 -24,-24 24,24 0 0 0 24,24 z m 0,-32 a 7.9999999,7.9999999 0 1 1 -8,8 7.9999999,7.9999999 0 0 1 8,-8 z"
   fill="url(#linear-gradient-13)"
   id="path46-7" /><path
   style="fill:url(#linear-gradient-12-9);stroke-width:8"
   d="m 663.13228,336.57585 a 24,24 0 1 0 24,24 24,24 0 0 0 -24,-24 z m 0,32 a 7.9999999,7.9999999 0 1 1 8,-8 7.9999999,7.9999999 0 0 1 -8,8 z"
   fill="url(#linear-gradient-12)"
   id="path48-5" /><path
   style="fill:url(#linear-gradient-15-6);stroke-width:8"
   d="m 799.13228,456.57585 a 24,24 0 1 0 24,24 24,24 0 0 0 -24,-24 z m 0,32 a 7.9999999,7.9999999 0 1 1 8,-8 7.9999999,7.9999999 0 0 1 -8,8 z"
   fill="url(#linear-gradient-15)"
   id="path50-9" /><g
   id="g168"
   transform="matrix(7.9999999,0,0,7.9999999,207.50987,-8.72127)"><path
     id="path22-1"
     fill="url(#linear-gradient)"
     d="m 123.42635,33.285535 a 13,13 0 1 0 -13,-13 13.015,13.015 0 0 0 13,13 z m 0,-24.0000002 a 11,11 0 1 1 -11,11.0000002 11.013,11.013 0 0 1 11,-11.0000002 z"
     style="fill:url(#linearGradient1195-6);stroke-width:1" /><path
     id="path24-0"
     fill="url(#linear-gradient-2)"
     d="m 116.42635,20.285535 a 7.008,7.008 0 0 1 7,-7 1,1 0 0 0 0,-2 9.011,9.011 0 0 0 -9,9 1,1 0 0 0 2,0 z"
     style="fill:url(#linear-gradient-2-9);stroke-width:1" /></g><g
   id="g160"
   transform="matrix(7.9999999,0,0,7.9999999,297.35816,-96.913142)"><path
     id="path26-6"
     fill="url(#linear-gradient-3)"
     d="m 147.42635,28.285535 a 13,13 0 1 0 13,13 13.015,13.015 0 0 0 -13,-13 z m 0,24 a 11,11 0 1 1 11,-11 11.013,11.013 0 0 1 -11,11 z"
     style="fill:url(#linear-gradient-3-7);stroke-width:1" /><path
     id="path28-3"
     fill="url(#linear-gradient-4)"
     d="m 147.42635,32.285535 a 9.011,9.011 0 0 0 -9,9 1,1 0 0 0 2,0 7.008,7.008 0 0 1 7,-7 1,1 0 0 0 0,-2 z"
     style="fill:url(#linear-gradient-4-3);stroke-width:1" /></g><g
   transform="matrix(7.9999999,0,0,7.9999999,-55.274792,485.57734)"
   id="g1463"><path
     id="path30-2"
     fill="url(#linear-gradient-5)"
     d="m 141.17635,1.0355347 a 7,7 0 1 0 -7,-7 7.008,7.008 0 0 0 7,7 z m 0,-11.9999997 a 5,5 0 1 1 -5,4.9999997 5.006,5.006 0 0 1 5,-4.9999997 z"
     style="fill:url(#linear-gradient-5-61);stroke-width:1" /><path
     id="path32-0"
     fill="url(#linear-gradient-6)"
     d="m 139.17635,-5.9644653 a 2,2 0 0 1 2,-2 1,1 0 0 0 0,-2 4,4 0 0 0 -4,4 1,1 0 0 0 2,0 z"
     style="fill:url(#linear-gradient-6-29);stroke-width:1" /></g><g
   transform="matrix(7.9999999,0,0,7.9999999,154.28702,-111.68165)"
   id="g164"><path
     id="path34-6-3"
     fill="url(#linear-gradient-7)"
     d="m 127.33698,53.004408 a 7,7 0 1 0 -7,7 7.008,7.008 0 0 0 7,-7 z m -7,5 a 5,5 0 1 1 5,-5 5.006,5.006 0 0 1 -5,5 z"
     style="fill:url(#linear-gradient-7-3);stroke-width:1" /><path
     id="path36-1"
     fill="url(#linear-gradient-8)"
     d="m 120.48972,49.651348 a 4,4 0 0 0 -4,4 1,1 0 0 0 2,0 2,2 0 0 1 2,-2 1,1 0 0 0 0,-2 z"
     style="fill:url(#linear-gradient-8-19);stroke-width:1" /></g><g
   transform="matrix(7.9999999,0,0,7.9999999,-1113.4108,280.00568)"
   id="g1459"><path
     id="path38-5"
     fill="url(#linear-gradient-9)"
     d="m 144.17635,12.035535 a 9,9 0 1 0 9,-9.0000003 9.011,9.011 0 0 0 -9,9.0000003 z m 9,-7.0000003 a 7,7 0 1 1 -7,7.0000003 7.008,7.008 0 0 1 7,-7.0000003 z"
     style="fill:url(#linear-gradient-9-4);stroke-width:1" /><path
     id="path40-5"
     fill="url(#linear-gradient-10)"
     d="m 149.17635,13.035535 a 1,1 0 0 0 1,-1 3,3 0 0 1 3,-3.0000003 1,1 0 0 0 0,-2 5.006,5.006 0 0 0 -5,5.0000003 1,1 0 0 0 1,1 z"
     style="fill:url(#linear-gradient-10-78);stroke-width:1" /></g><path
   style="fill:url(#linear-gradient-11-4);stroke-width:8"
   d="m 976.40333,88 a 24,24 0 1 0 -23.99998,-24 24,24 0 0 0 23.99998,24 z m 0,-32 a 7.9999999,7.9999999 0 1 1 -8,8 7.9999999,7.9999999 0 0 1 8,-8 z"
   fill="url(#linear-gradient-11)"
   id="path42-4" /><path
   style="fill:url(#linear-gradient-12-5);stroke-width:8"
   d="m 1479.7395,383.91142 a 24,24 0 1 0 -24.0001,24 24,24 0 0 0 24.0001,-24 z m -32.0001,0 a 7.9999999,7.9999999 0 1 1 8,8 7.9999999,7.9999999 0 0 1 -8,-8 z"
   fill="url(#linear-gradient-12)"
   id="path44-7" /><path
   style="fill:url(#linear-gradient-13-0);stroke-width:8"
   d="m 1341.3714,136.9833 a 24,24 0 1 0 -24,-24 24,24 0 0 0 24,24 z m 0,-32 a 7.9999999,7.9999999 0 1 1 -8,8 7.9999999,7.9999999 0 0 1 8,-8 z"
   fill="url(#linear-gradient-13)"
   id="path46-6" /><path
   style="fill:url(#linearGradient1455);stroke-width:8"
   d="m 1071.0088,196.50942 a 24,24 0 1 0 24,24 24,24 0 0 0 -24,-24 z m 0,32 a 7.9999999,7.9999999 0 1 1 8,-8 7.9999999,7.9999999 0 0 1 -8,8 z"
   fill="url(#linear-gradient-12)"
   id="path48-56" /><path
   style="fill:url(#linear-gradient-15-3);stroke-width:8"
   d="m 1213.6978,274.60263 a 24,24 0 1 0 24,24 24,24 0 0 0 -24,-24 z m 0,32 a 7.9999999,7.9999999 0 1 1 8,-8 7.9999999,7.9999999 0 0 1 -8,8 z"
   fill="url(#linear-gradient-15)"
   id="path50-93" /><g
   transform="matrix(0.7476205,0,0,0.7476205,586.33665,89.32836)"
   id="g1287"><path
     style="fill:#ffe082"
     d="m 256,10.667 c -69.326,-0.131 -125.632,55.962 -125.763,125.287 -0.002,0.904 0.006,1.809 0.024,2.713 v 0.448 l 3.989,93.867 c 0.031,0.719 0.131,1.433 0.299,2.133 C 151.936,305.067 200.725,352 256,352 c 55.275,0 104.064,-46.933 121.429,-116.843 0.168,-0.7 0.268,-1.414 0.299,-2.133 l 4.011,-94.357 C 383.106,69.355 328.025,12.058 258.713,10.691 257.809,10.673 256.904,10.665 256,10.667 Z"
     id="path2" /><path
     style="fill:#cfd8dc"
     d="M 377.877,75.691 C 338.875,61.156 297.622,53.589 256,53.333 214.378,53.585 173.124,61.152 134.123,75.69 130.238,77.515 127.825,81.492 128,85.781 l 6.187,147.2 c 0.04,1.047 0.234,2.082 0.576,3.072 l 4.48,12.8 c 1.499,4.288 5.549,7.156 10.091,7.147 8.453,-0.012 16.899,-0.482 25.301,-1.408 l 12.8,19.2 c 5.989,8.913 16.014,14.269 26.752,14.293 h 3.84 c 14.159,0.229 26.694,-9.11 30.528,-22.741 L 252.438,256 h 7.211 l 3.285,7.659 c 3.48,14.311 16.312,24.374 31.04,24.341 h 3.84 c 10.752,-0.035 20.784,-5.407 26.773,-14.336 l 12.8,-19.093 c 8.395,0.932 16.834,1.41 25.28,1.429 4.534,0 8.573,-2.866 10.069,-7.147 l 4.48,-12.8 c 0.342,-0.99 0.536,-2.025 0.576,-3.072 l 6.187,-147.2 c 0.179,-4.284 -2.225,-8.259 -6.102,-10.09 z"
     id="path4" /><g
     id="g18">
	<path
   style="fill:#455a64"
   d="m 418.88,344.021 -54.869,-19.093 c -4.021,-1.402 -8.491,-0.279 -11.371,2.859 -24.322,28.167 -59.435,44.716 -96.64,45.547 -37.202,-0.825 -72.314,-17.366 -96.64,-45.525 -2.88,-3.137 -7.35,-4.261 -11.371,-2.859 L 93.12,344.043 C 37.37,363.43 0.003,415.984 0,475.008 v 15.659 c 0,5.891 4.776,10.667 10.667,10.667 h 490.667 c 5.891,0 10.667,-4.776 10.667,-10.667 V 475.008 C 512.006,415.976 474.637,363.411 418.88,344.021 Z"
   id="path6" />
	<path
   style="fill:#455a64"
   d="M 224,202.667 H 202.667 C 196.776,202.667 192,197.891 192,192 c 0,-5.891 4.776,-10.667 10.667,-10.667 H 224 c 5.891,0 10.667,4.776 10.667,10.667 0,5.891 -4.776,10.667 -10.667,10.667 z"
   id="path8" />
	<path
   style="fill:#455a64"
   d="M 309.333,202.667 H 288 c -5.891,0 -10.667,-4.776 -10.667,-10.667 0,-5.891 4.776,-10.667 10.667,-10.667 h 21.333 c 5.891,0 10.667,4.776 10.667,10.667 0,5.891 -4.776,10.667 -10.667,10.667 z"
   id="path10" />
	<path
   style="fill:#455a64"
   d="m 234.667,170.667 c -2.555,-0.007 -5.023,-0.93 -6.955,-2.603 -16,-13.781 -42.667,-28.779 -49.493,-21.867 -4.237,4.092 -10.99,3.975 -15.083,-0.262 -3.992,-4.134 -3.992,-10.687 0,-14.82 24.043,-24.021 69.611,13.12 78.507,20.8 4.465,3.842 4.97,10.577 1.128,15.043 -2.031,2.359 -4.991,3.714 -8.104,3.709 z"
   id="path12" />
	<path
   style="fill:#455a64"
   d="m 277.333,170.667 c -5.891,-0.003 -10.664,-4.782 -10.661,-10.673 0.002,-3.093 1.346,-6.033 3.685,-8.058 8.896,-7.68 54.507,-44.8 78.507,-20.8 4.237,4.093 4.355,10.845 0.262,15.083 -4.093,4.237 -10.845,4.355 -15.083,0.262 -0.089,-0.086 -0.176,-0.173 -0.262,-0.262 -6.869,-6.891 -33.472,8.064 -49.493,21.867 -1.935,1.664 -4.402,2.58 -6.955,2.581 z"
   id="path14" />
	<path
   style="fill:#455a64"
   d="m 256,373.333 c -5.214,-0.002 -9.662,-3.774 -10.517,-8.917 l -10.667,-64 c -1.141,-5.779 2.619,-11.39 8.398,-12.531 5.779,-1.141 11.39,2.619 12.531,8.398 0.042,0.21 0.077,0.422 0.105,0.634 l 0.149,0.875 0.149,-0.875 c 1.141,-5.779 6.752,-9.539 12.531,-8.398 5.535,1.093 9.261,6.306 8.504,11.897 l -10.667,64 c -0.854,5.144 -5.302,8.915 -10.516,8.917 z"
   id="path16" />
</g><path
     d="M 501.333,501.333 H 10.667 C 4.776,501.333 0,496.558 0,490.667 V 475.008 C 0.003,415.983 37.37,363.43 93.12,344.043 l 54.869,-19.093 c 4.021,-1.402 8.491,-0.279 11.371,2.859 24.326,28.159 59.438,44.7 96.64,45.525 37.202,-0.825 72.314,-17.366 96.64,-45.525 2.88,-3.137 7.35,-4.261 11.371,-2.859 l 54.869,19.093 v 0 c 55.75,19.387 93.117,71.941 93.12,130.965 v 15.659 c 0,5.891 -4.776,10.666 -10.667,10.666 z M 21.333,480 h 469.333 v -4.992 c 0.003,-49.945 -31.612,-94.417 -78.784,-110.827 L 363.498,347.349 C 335.503,376.96 296.744,394.021 255.999,394.666 215.255,394.02 176.495,376.96 148.5,347.349 l -48.384,16.832 C 52.944,380.59 21.329,425.063 21.332,475.008 V 480 Z"
     id="path20" /><path
     d="M 224,202.667 H 202.667 C 196.776,202.667 192,197.891 192,192 c 0,-5.891 4.776,-10.667 10.667,-10.667 H 224 c 5.891,0 10.667,4.776 10.667,10.667 0,5.891 -4.776,10.667 -10.667,10.667 z"
     id="path22" /><path
     d="M 309.333,202.667 H 288 c -5.891,0 -10.667,-4.776 -10.667,-10.667 0,-5.891 4.776,-10.667 10.667,-10.667 h 21.333 c 5.891,0 10.667,4.776 10.667,10.667 0,5.891 -4.776,10.667 -10.667,10.667 z"
     id="path24" /><path
     d="m 256,352 c -55.275,0 -104.064,-46.933 -121.429,-116.843 -1.42,-5.72 2.066,-11.508 7.787,-12.928 5.721,-1.42 11.508,2.066 12.928,7.787 14.933,60.117 55.402,100.651 100.714,100.651 45.312,0 85.781,-40.533 100.715,-100.651 1.42,-5.72 7.208,-9.206 12.928,-7.787 5.72,1.42 9.206,7.208 7.787,12.928 C 360.064,305.067 311.275,352 256,352 Z"
     id="path26" /><path
     d="m 371.072,149.333 c -5.891,0 -10.667,-4.776 -10.667,-10.667 1.428,-57.656 -44.154,-105.552 -101.81,-106.98 -57.656,-1.428 -105.552,44.154 -106.98,101.81 -0.043,1.723 -0.043,3.447 0,5.17 0,5.891 -4.776,10.667 -10.667,10.667 -5.891,0 -10.667,-4.776 -10.667,-10.667 -0.905,-69.438 54.652,-126.461 124.09,-127.366 69.438,-0.905 126.461,54.652 127.366,124.09 0.014,1.092 0.014,2.184 0,3.276 0.002,5.892 -4.774,10.667 -10.665,10.667 z"
     id="path28" /><path
     d="m 297.92,288 h -3.925 c -14.681,-0.002 -27.477,-9.993 -31.04,-24.235 L 259.627,256 h -7.189 l -3.883,9.301 c -3.89,13.596 -16.409,22.898 -30.549,22.699 h -3.925 c -10.699,-10e-4 -20.69,-5.348 -26.624,-14.251 l -14.933,-22.507 c -3.27,-4.901 -1.947,-11.525 2.955,-14.795 4.901,-3.27 11.525,-1.947 14.795,2.955 l 14.933,22.507 c 1.976,2.97 5.307,4.755 8.875,4.757 h 3.925 c 4.896,-10e-4 9.162,-3.335 10.347,-8.085 l 7.125,-17.365 c 1.662,-3.972 5.55,-6.556 9.856,-6.549 h 21.333 c 4.298,0.002 8.175,2.584 9.835,6.549 l 6.635,15.851 c 0.878,5.374 5.418,9.387 10.859,9.6 h 3.925 c 3.568,-0.002 6.898,-1.787 8.875,-4.757 l 14.933,-22.507 c 3.27,-4.901 9.893,-6.224 14.795,-2.955 4.901,3.27 6.224,9.893 2.955,14.795 l -14.933,22.507 c -5.937,8.902 -15.928,14.249 -26.627,14.25 z"
     id="path30" /><path
     d="m 149.333,256 c -5.891,0 -10.667,-4.776 -10.667,-10.667 0,-5.891 4.776,-10.667 10.667,-10.667 20.096,0.489 40.111,-2.714 59.051,-9.451 5.219,-2.733 11.667,-0.718 14.4,4.501 2.733,5.219 0.718,11.667 -4.501,14.4 -21.973,8.478 -45.407,12.516 -68.95,11.884 z"
     id="path32" /><path
     d="m 362.667,256 c -23.542,0.632 -46.977,-3.407 -68.949,-11.883 -5.219,-2.733 -7.235,-9.181 -4.501,-14.4 2.733,-5.219 9.181,-7.235 14.4,-4.501 18.939,6.737 38.955,9.94 59.051,9.451 5.891,0 10.667,4.776 10.667,10.667 -0.002,5.89 -4.777,10.666 -10.668,10.666 z"
     id="path34" /><path
     d="m 234.667,170.667 c -2.555,-0.007 -5.023,-0.93 -6.955,-2.603 -16,-13.781 -42.667,-28.779 -49.493,-21.867 -4.237,4.092 -10.99,3.975 -15.083,-0.262 -3.992,-4.134 -3.992,-10.687 0,-14.82 24.043,-24.021 69.611,13.12 78.507,20.8 4.465,3.842 4.97,10.577 1.128,15.043 -2.031,2.359 -4.991,3.714 -8.104,3.709 z"
     id="path36" /><path
     d="m 277.333,170.667 c -5.891,-0.003 -10.664,-4.782 -10.661,-10.673 0.002,-3.093 1.346,-6.033 3.685,-8.058 8.896,-7.68 54.507,-44.8 78.507,-20.8 4.237,4.093 4.355,10.845 0.262,15.083 -4.093,4.237 -10.845,4.355 -15.083,0.262 -0.089,-0.086 -0.176,-0.173 -0.262,-0.262 -6.869,-6.891 -33.472,8.064 -49.493,21.867 -1.935,1.664 -4.402,2.58 -6.955,2.581 z"
     id="path38" /><path
     d="m 367.083,243.2 h -0.469 c -5.885,-0.254 -10.45,-5.23 -10.197,-11.115 L 362.369,92.16 C 327.982,81.058 292.13,75.162 256,74.667 219.904,75.184 184.087,81.095 149.739,92.203 l 5.952,139.925 c 0.247,5.891 -4.328,10.867 -10.219,11.115 -5.891,0.248 -10.867,-4.328 -11.115,-10.219 L 128,85.781 c -0.184,-4.297 2.23,-8.284 6.123,-10.112 C 173.132,61.162 214.381,53.603 256,53.333 c 41.647,0.259 82.927,7.819 121.963,22.336 3.859,1.854 6.237,5.835 6.037,10.112 l -6.251,147.2 c -0.24,5.716 -4.946,10.224 -10.666,10.219 z"
     id="path40" /><path
     d="m 256,373.333 c -5.214,-0.002 -9.662,-3.774 -10.517,-8.917 l -10.667,-64 c -1.141,-5.779 2.619,-11.39 8.398,-12.531 5.779,-1.141 11.39,2.619 12.531,8.398 0.042,0.21 0.077,0.422 0.105,0.634 l 0.149,0.875 0.149,-0.875 c 1.141,-5.779 6.752,-9.539 12.531,-8.398 5.535,1.093 9.261,6.306 8.504,11.897 l -10.667,64 c -0.854,5.144 -5.302,8.915 -10.516,8.917 z"
     id="path42" /><g
     id="g44">
</g><g
     id="g46">
</g><g
     id="g48">
</g><g
     id="g50">
</g><g
     id="g52">
</g><g
     id="g54">
</g><g
     id="g56">
</g><g
     id="g58">
</g><g
     id="g60">
</g><g
     id="g62">
</g><g
     id="g64">
</g><g
     id="g66">
</g><g
     id="g68">
</g><g
     id="g70">
</g><g
     id="g72">
</g></g></svg>
